{
    "staticGameConfiguration": {
	"graph": {
	    "edges":[{"from":0,"to":6},{"from":6,"to":0},{"from":1,"to":6},{"from":6,"to":1},{"from":2,"to":6},{"from":6,"to":2},{"from":3,"to":6},{"from":6,"to":3},{"from":4,"to":6},{"from":6,"to":4},{"from":5,"to":9},{"from":9,"to":5},{"from":6,"to":7},{"from":7,"to":6},{"from":8,"to":7},{"from":7,"to":8},{"from":8,"to":9},{"from":9,"to":8}],
	    "vertexCount":10
	},
    "defenseProbabilityFunc" : "DISCRETE","targets":[0,1,2,3,4],"spawns":[5],"defenderPenalties":[[8],[10],[12],[15],[20]],"attackerRewards":[[2],[3],[4],[5],[10]],"vertexDefenderRewards":[[1],[2],[2],[2],[2],[1],[1],[1],[1],[1]],"vertexAttackerPenalties":[[1],[1],[1],[1],[1],[1],[1],[1],[1],[1]],
"attackerCount":1,
	"stateHistoryHorizon": 0,
	"defenderCount": 1,
	"historyTimeHorizon": 0
    },
    "attackerCount": 1
}
