Floor: 0
C-O-O-O-O
|         
E-C-C-C-I
|         
C-O O-O-O
| | | | | 
C-O-O-O-O
| |   | | 
C-O-O-O-O
     
Floor: 1
C O-O-O-O
|     |   
E-C-C-C-C
|         
C-O O-O O
| | | | | 
C O-O O-O
| |   | | 
C O-O-O O
     

