id,x,y,floor,type
0,2,4,0,OFFICE
1,2,1,1,OFFICE
2,4,0,0,CORRIDOR
3,1,0,0,OFFICE
4,1,3,1,OFFICE
5,0,1,0,OFFICE
6,1,1,0,OFFICE
7,2,1,0,OFFICE
8,3,1,0,OFFICE
9,4,1,0,CORRIDOR
10,0,2,0,ENTRANCE
11,1,2,0,CORRIDOR
12,2,2,0,CORRIDOR
13,3,2,0,CORRIDOR
14,4,2,0,ELEVATOR
15,0,3,0,OFFICE
16,1,3,0,OFFICE
17,2,3,0,OFFICE
18,3,3,0,OFFICE
19,4,3,0,CORRIDOR
20,0,4,0,OFFICE
21,1,4,0,OFFICE
22,0,0,0,OFFICE
23,3,4,0,OFFICE
24,4,4,0,CORRIDOR
25,0,0,1,OFFICE
26,1,0,1,OFFICE
27,2,0,1,OFFICE
28,3,0,1,OFFICE
29,4,0,1,CORRIDOR
30,0,1,1,OFFICE
31,1,1,1,OFFICE
32,3,0,0,OFFICE
33,3,1,1,OFFICE
34,4,1,1,CORRIDOR
35,0,2,1,CORRIDOR
36,1,2,1,CORRIDOR
37,2,2,1,CORRIDOR
38,3,2,1,CORRIDOR
39,4,2,1,ELEVATOR
40,0,3,1,OFFICE
41,2,0,0,OFFICE
42,2,3,1,OFFICE
43,3,3,1,OFFICE
44,4,3,1,CORRIDOR
45,0,4,1,OFFICE
46,1,4,1,OFFICE
47,2,4,1,OFFICE
48,3,4,1,OFFICE
49,4,4,1,CORRIDOR
