id,x,y,floor,type
0,4,1,0,OFFICE
1,2,0,0,CORRIDOR
2,4,1,1,OFFICE
3,0,0,0,OFFICE
4,3,1,0,OFFICE
5,0,1,0,OFFICE
6,1,1,0,OFFICE
7,2,1,0,CORRIDOR
8,4,0,0,OFFICE
9,3,0,0,OFFICE
10,0,2,0,OFFICE
11,1,2,0,OFFICE
12,2,2,0,CORRIDOR
13,3,2,0,OFFICE
14,4,2,0,OFFICE
15,0,3,0,ENTRANCE
16,1,3,0,CORRIDOR
17,2,3,0,ELEVATOR
18,3,3,0,CORRIDOR
19,4,3,0,CORRIDOR
20,0,4,0,OFFICE
21,1,4,0,OFFICE
22,2,4,0,CORRIDOR
23,3,4,0,OFFICE
24,4,4,0,OFFICE
25,0,0,1,OFFICE
26,1,0,1,OFFICE
27,2,0,1,CORRIDOR
28,3,0,1,OFFICE
29,4,0,1,OFFICE
30,0,1,1,OFFICE
31,1,1,1,OFFICE
32,2,1,1,CORRIDOR
33,3,1,1,OFFICE
34,1,0,0,OFFICE
35,0,2,1,OFFICE
36,1,2,1,OFFICE
37,2,2,1,CORRIDOR
38,3,2,1,OFFICE
39,4,2,1,OFFICE
40,0,3,1,CORRIDOR
41,1,3,1,CORRIDOR
42,2,3,1,ELEVATOR
43,3,3,1,CORRIDOR
44,4,3,1,CORRIDOR
45,0,4,1,OFFICE
46,1,4,1,OFFICE
47,2,4,1,CORRIDOR
48,3,4,1,OFFICE
49,4,4,1,OFFICE
