Floor: 0
E-C-C-C-I
|   | |   
C O-O-O-O
| | | | | 
C O O-O-O
| | | |   
C-O O O-O
| | | | | 
C-O-O-O O
     
Floor: 1
E-C-C-C-C
| | |     
C O-O-O-O
| | | | | 
C O-O-O-O
| |       
C-O-O-O-O
| | | | | 
C O O-O-O
     

