id,x,y,floor,type
0,2,1,1,OFFICE
1,0,1,1,OFFICE
2,2,4,0,OFFICE
3,0,0,0,ENTRANCE
4,0,1,0,OFFICE
5,4,0,0,ELEVATOR
6,1,1,0,OFFICE
7,2,1,0,OFFICE
8,3,1,0,OFFICE
9,4,1,0,CORRIDOR
10,0,2,0,OFFICE
11,1,2,0,OFFICE
12,2,2,0,OFFICE
13,3,2,0,OFFICE
14,4,2,0,CORRIDOR
15,0,3,0,OFFICE
16,1,3,0,OFFICE
17,2,3,0,OFFICE
18,3,3,0,OFFICE
19,4,3,0,CORRIDOR
20,0,4,0,OFFICE
21,1,4,0,OFFICE
22,2,0,0,CORRIDOR
23,3,4,0,OFFICE
24,4,4,0,CORRIDOR
25,0,0,1,CORRIDOR
26,1,0,1,CORRIDOR
27,2,0,1,CORRIDOR
28,3,0,1,CORRIDOR
29,4,0,1,ELEVATOR
30,1,0,0,CORRIDOR
31,1,1,1,OFFICE
32,3,0,0,CORRIDOR
33,3,1,1,OFFICE
34,4,1,1,CORRIDOR
35,0,2,1,OFFICE
36,1,2,1,OFFICE
37,2,2,1,OFFICE
38,3,2,1,OFFICE
39,4,2,1,CORRIDOR
40,0,3,1,OFFICE
41,1,3,1,OFFICE
42,2,3,1,OFFICE
43,3,3,1,OFFICE
44,4,3,1,CORRIDOR
45,0,4,1,OFFICE
46,1,4,1,OFFICE
47,2,4,1,OFFICE
48,3,4,1,OFFICE
49,4,4,1,CORRIDOR
