id,x,y,floor,type
0,4,2,1,OFFICE
1,3,3,1,OFFICE
2,1,1,0,OFFICE
3,3,3,0,OFFICE
4,1,0,0,OFFICE
5,0,1,0,CORRIDOR
6,2,0,0,OFFICE
7,2,1,0,OFFICE
8,3,1,0,OFFICE
9,4,1,0,OFFICE
10,0,2,0,CORRIDOR
11,1,2,0,OFFICE
12,2,2,0,OFFICE
13,3,2,0,OFFICE
14,4,2,0,OFFICE
15,0,3,0,CORRIDOR
16,1,3,0,OFFICE
17,2,3,0,OFFICE
18,3,0,0,OFFICE
19,4,3,0,OFFICE
20,0,4,0,ELEVATOR
21,1,4,0,CORRIDOR
22,2,4,0,CORRIDOR
23,3,4,0,CORRIDOR
24,4,4,0,ENTRANCE
25,0,0,1,CORRIDOR
26,1,0,1,OFFICE
27,2,0,1,OFFICE
28,3,0,1,OFFICE
29,4,0,1,OFFICE
30,0,1,1,CORRIDOR
31,1,1,1,OFFICE
32,2,1,1,OFFICE
33,3,1,1,OFFICE
34,4,1,1,OFFICE
35,0,2,1,CORRIDOR
36,1,2,1,OFFICE
37,2,2,1,OFFICE
38,3,2,1,OFFICE
39,0,0,0,CORRIDOR
40,0,3,1,CORRIDOR
41,1,3,1,OFFICE
42,2,3,1,OFFICE
43,4,0,0,OFFICE
44,4,3,1,OFFICE
45,0,4,1,ELEVATOR
46,1,4,1,CORRIDOR
47,2,4,1,CORRIDOR
48,3,4,1,CORRIDOR
49,4,4,1,CORRIDOR
