Floor: 0
I-E-C-C-C
  |     | 
O-C O-O-O
  | | | | 
O-C O-O-O
| | |   | 
O C-O O O
| | | | | 
O C-O-O-O
     
Floor: 1
C-E-C-C-C
| | |   | 
O C O-O O
| |   | | 
O C-O O-O
| | |   | 
O C O O-O
| |     | 
O C-O-O-O
     

