id,x,y,floor,type
0,0,2,0,OFFICE
1,2,2,0,OFFICE
2,0,3,0,OFFICE
3,3,0,0,ELEVATOR
4,0,1,0,OFFICE
5,1,1,0,OFFICE
6,2,1,0,OFFICE
7,3,1,0,CORRIDOR
8,0,0,0,ENTRANCE
9,1,2,0,OFFICE
10,1,0,0,CORRIDOR
11,3,2,0,CORRIDOR
12,2,0,0,CORRIDOR
13,1,3,0,OFFICE
14,2,3,0,OFFICE
15,3,3,0,CORRIDOR
