id,x,y,floor,type
0,0,2,0,OFFICE
1,2,3,0,OFFICE
2,3,3,0,OFFICE
3,3,0,0,CORRIDOR
4,0,1,0,OFFICE
5,1,1,0,CORRIDOR
6,2,1,0,OFFICE
7,3,1,0,OFFICE
8,0,0,0,ENTRANCE
9,1,2,0,CORRIDOR
10,2,2,0,OFFICE
11,3,2,0,OFFICE
12,0,3,0,OFFICE
13,1,3,0,CORRIDOR
14,1,0,0,ELEVATOR
15,2,0,0,CORRIDOR
