id,x,y,floor,type
0,3,0,0,OFFICE
1,1,0,0,OFFICE
2,2,0,0,CORRIDOR
3,0,0,0,OFFICE
4,0,1,0,OFFICE
5,1,1,0,OFFICE
6,2,1,0,CORRIDOR
7,3,1,0,OFFICE
8,0,2,0,OFFICE
9,1,2,0,OFFICE
10,2,2,0,CORRIDOR
11,3,2,0,OFFICE
12,0,3,0,ENTRANCE
13,1,3,0,CORRIDOR
14,2,3,0,ELEVATOR
15,3,3,0,CORRIDOR
