id,x,y,floor,type
0,1,1,0,OFFICE
1,2,0,0,OFFICE
2,2,3,0,OFFICE
3,3,0,0,OFFICE
4,0,1,0,CORRIDOR
5,0,0,0,CORRIDOR
6,2,1,0,OFFICE
7,3,1,0,OFFICE
8,0,2,0,ELEVATOR
9,1,2,0,CORRIDOR
10,2,2,0,CORRIDOR
11,3,2,0,ENTRANCE
12,0,3,0,CORRIDOR
13,1,3,0,OFFICE
14,1,0,0,OFFICE
15,3,3,0,OFFICE
