{    "defenseProbabilityFunc" : "DISCRETE",
"targets":[1,2,3,4],
"spawns":[16,17],
"defenderPenalties":[[32],[32],[1],[243]],
"attackerRewards":[[20],[10],[5],[20]],
"vertexDefenderRewards":[[1],
[243],[243],[32],[1024],
[1],[1],[1],[1],[1],[1],[1],[1],[1],[1],[1],[1],[1]],
"vertexAttackerPenalties":[[1],[1],[1],[1],[1],[1],[1],[1],[1],[1],[1],[1],[1],[1],[1],[1],[1],[1]],
"edges":[{"from":2,"to":5},{"from":5,"to":2},{"from":3,"to":6},{"from":6,"to":3},{"from":4,"to":7},{"from":7,"to":4},{"from":5,"to":6},{"from":6,"to":5},{"from":6,"to":7},{"from":7,"to":6},{"from":5,"to":8},{"from":8,"to":5},{"from":6,"to":9},{"from":9,"to":6},{"from":7,"to":10},{"from":10,"to":7},{"from":8,"to":11},{"from":11,"to":8},{"from":9,"to":1},{"from":1,"to":9},{"from":10,"to":13},{"from":13,"to":10},{"from":8,"to":9},{"from":9,"to":8},{"from":9,"to":10},{"from":10,"to":9},{"from":8,"to":12},{"from":12,"to":8},{"from":10,"to":12},{"from":12,"to":10},{"from":11,"to":12},{"from":12,"to":11},{"from":12,"to":13},{"from":13,"to":12},{"from":11,"to":14},{"from":14,"to":11},{"from":12,"to":0},{"from":0,"to":12},{"from":13,"to":15},{"from":15,"to":13},{"from":11,"to":16},{"from":16,"to":11},{"from":13,"to":17},{"from":17,"to":13},{"from":14,"to":0},{"from":0,"to":14},{"from":15,"to":0},{"from":0,"to":15},{"from":14,"to":16},{"from":16,"to":14},{"from":15,"to":17},{"from":17,"to":15}],
"attackerCount":1,
"vertexCount":18,
"defenderCount": 2,
"stateHistoryHorizon": 0,
"historyTimeHorizon": 0
}
