{    "defenseProbabilityFunc" : "DISCRETE","targets":[0,1,2],"spawns":[8],"defenderPenalties":[[15],[12],[5]],"attackerRewards":[[10],[5],[30]],"vertexDefenderRewards":[[3],[3],[3],[1],[1],[1],[1],[1],[1],[1],[1]],"vertexAttackerPenalties":[[1],[1],[1],[1],[1],[1],[1],[1],[1],[1],[1]],"edges":[{"from":0,"to":3},{"from":3,"to":0},{"from":1,"to":4},{"from":4,"to":1},{"from":2,"to":5},{"from":5,"to":2},{"from":3,"to":4},{"from":4,"to":3},{"from":4,"to":5},{"from":5,"to":4},{"from":5,"to":6},{"from":6,"to":5},{"from":6,"to":7},{"from":7,"to":6},{"from":7,"to":8},{"from":8,"to":7},{"from":8,"to":9},{"from":9,"to":8},{"from":9,"to":10},{"from":10,"to":9},{"from":10,"to":3},{"from":3,"to":10}],
"attackerCount":1,
"vertexCount":11,
"defenderCount": 2,
"stateHistoryHorizon": 0,
"historyTimeHorizon": 0
}
