{
  "defenderMovesMin": 2,
  "defenderMovesMax": 5,
  "attackerMovesMin": 2,
  "attackerMovesMax": 5,
  "gameDepthMin": 3,
  "gameDepthMax": 5,
  "defenderLambda": 0.2,
  "attackerLambda": 0.005,
  "defenderEqualIsBias": 0.2,
  "attackerEqualIsBias": 0.1,
  "payoffDriftVariance": 0.8,
  "defenderPayoffVariance": 0.8,
  "attackerPayoffVariance": 0.8,
  "playersPayoffCovariance": -0.7
}
