{
    "randomDefender": true,
    "bestSearchHistoryLength": 5,
    "updateIterations": 300,
    "oneAttackerEvaluations": 1500,
    "oneAttackerRoots": 1,
    "treeTransferType": "BEST_MOVE", 
    "attackerHistoryLength": 1,
    "gameVariant": "SINGLE_MOVE_PER_TIMESTEP"
}
