{
    "bestSearchHistoryLength": 20,
    "updateIterations": 45000,
    "oneAttackerEvaluations": 500,
    "oneAttackerRoots": 1,
    "otherAttackerMovesProbability": 0,
    "treeTransferType": "BEST_PART",
    "bestPortion": 0.5,
    "joinMethod": "VISIT_WEIGHTED_JOIN",
    "treeFilterType": "ALL_TREES",
    "attackerHistoryLength": 10000,
    "nodeProbabilityFunction": "VISITS_COUNT",
    "strategyFilterType": "BEST_GAP",
    "bestGap": 0.05,
    "startingAttackerType": "UNIFORM_DEFENDER_OPPONENT",
    "defenderStrategyChooser": "BEST_STRATEGY_EVER",
"firstAccidentStop": true,
    "resultTrends": {
	"maxIterationsWithoutImprovement": 10000,         
	"oscilateCheckIterations": 400,
	"oscilateCheckSmoothSteps": 40,
	"oscilateCheckFirstIteration": -1,
	"oscilateCheckThreshold": 2
    },
    "gameVariant": "SINGLE_MOVE_PER_TIMESTEP"
}
