{
  "name": "mixedUct",
  "config": {
    "stopConditions": [
      {
        "name": "iterationLimit",
        "config": {
          "iterations": 500000
        }
      },
      {
        "name": "noImprovement",
        "config": {
          "iterations": 100000
        }
      }
    ],
    "startAttacker": "uniformMoves",
    "attackerHistory": {
      "name": "simpleHistoryAttacker",
      "config": {
        "historyLength": 1000,
        "historyChanger": {
          "name": "constant",
          "config": {}
        }
      }
    },
    "strategyFilter": {
      "name": "bestGap",
      "config": {
        "bestGap": 0.05
      }
    },
    "resultTrends": {
      "oscilateCheckIterations": 400,
      "oscilateCheckSmoothSteps": 40,
      "oscilateCheckFirstIteration": -1,
      "oscilateCheckThreshold": 2
    },
    "attackerSolver": {
      "name": "exact",
      "config": {}
    },
    "strategyChooser": {
      "name": "bestStrategyEver",
      "config": {}
    },
    "gameVariant": "SINGLE_MOVE_PER_TIMESTEP",
    "iterationBudget": 500000,
    "restartLimit": 1,
    "defenderOracle": {
      "name": "uct",
      "config": {
        "informationTransfer": {
          "name": "fullTree",
          "config": {
            "nodeWeightFunction": "NORMALIZED_VISITS_COUNT",
            "pruneFunction": {
              "name": "keepAll",
              "config": {}
            },
            "treeDescentFilterCoefficient": 0
          }
        },
        "i2Uct": {
          "simulationsInLevel": 1000,
          "selectionFormula": {
            "name": "ucb1",
            "config": {
              "C": 1.4
            }
          },
          "statsUpdater": {
            "name": "simple",
            "config": {}
          },
          "stopConditions": [
            {
              "name": "firstAccident",
              "config": {}
            }
          ],
          "uctTreeType": {
            "name": "normalTree",
            "config": {}
          }
        }
      }
    }
  }
}
