{
  "name": "mixedUct",
  "config": {
    "stopConditions": [
      {
        "name": "iterationLimit",
        "config": {
          "iterations": 100000
        }
      },
      {
        "name": "noImprovement",
        "config": {
          "iterations": 1000
        }
      }
    ],
    "startAttacker": "uniformMoves",
    "attackerHistory": {
      "name": "simpleHistoryAttacker",
      "config": {
        "historyLength": 1,
        "historyChanger": {
          "name": "constant",
          "config": {}
        }
      }
    },
    "strategyFilter": {
      "name": "null",
      "config": {}
    },
    "resultTrends": {
      "oscilateCheckIterations": 400,
      "oscilateCheckSmoothSteps": 40,
      "oscilateCheckFirstIteration": -1,
      "oscilateCheckThreshold": 2
    },
    "attackerSolver": {
      "name": "exact",
      "config": {}
    },
    "strategyChooser": {
      "name": "bestStrategyEver",
      "config": {}
    },
    "gameVariant": "SINGLE_MOVE_PER_TIMESTEP",
    "iterationBudget": 45000,
    "restartLimit": 1,
    "defenderOracle": {
	"name": "hybridRandomDirection",
	"config": {
	    "samples": 200,
	    "stepEps": 0.000000001
	}
    }
  }
}
