{
  "name": "mixedUct",
  "config": {
    "stopConditions": [
      {
        "name": "iterationLimit",
        "config": {
          "iterations": 100000
        }
      },
      {
        "name": "noImprovement",
        "config": {
          "iterations": 50000
        }
      }
    ],
    "startAttacker": "uniformMoves",
    "attackerHistory": {
      "name": "payoffWeightedHistoryAttacker",
      "config": {
        "historyIterations": 200,
        "weightFunction": {
          "type": "exponential"
        }
      }
    },
    "strategyFilter": {
      "name": "bestGap",
      "config": {
        "bestGap": 0.05
      }
    },
    "resultTrends": {
      "oscilateCheckIterations": 400,
      "oscilateCheckSmoothSteps": 40,
      "oscilateCheckFirstIteration": -1,
      "oscilateCheckThreshold": 2
    },
    "attackerSolver": {
      "name": "exact",
      "config": {}
    },
    "strategyChooser": {
      "name": "bestStrategyEver",
      "config": {}
    },
    "gameVariant": "SINGLE_MOVE_PER_TIMESTEP",
    "iterationBudget": 45000,
    "restartLimit": 1,
    "defenderOracle": {
      "name": "uct",
      "config": {
        "informationTransfer": {
          "name": "bestMoveFrequency",
          "config": {
            "bestMovesCount": 10000
          }
        },
        "i2Uct": {
          "simulationsInLevel": 20000,
          "selectionFormula": {
            "name": "ucb1",
            "config": {
              "C": 1.4
            }
          },
          "statsUpdater": {
            "name": "simple",
            "config": {}
          },
          "stopConditions": [
            {
              "name": "firstAccident",
              "config": {}
            }
          ],
          "uctTreeType": {
            "name": "normalTree",
            "config": {}
          }
        }
      }
    }
  }
}
