{
  "graph" : {
    "vertexCount" : 4,
    "edges" : [
      {
        "from" : 0,
        "to" : 1
      },
      {
        "from" : 1,
        "to" : 2
      },
      {
        "from" : 2,
        "to" : 3
      }
    ]
  },
  "entryPoints" : [
    0
  ],
  "rewardConfig" : {
    "types" : [
      {
        "minReward" : 6.0,
        "maxReward" : 10.0,
        "minCost" : 6.0,
        "maxCost" : 10.0
      },
      {
        "minReward" : 6.0,
        "maxReward" : 10.0,
        "minCost" : 3.0,
        "maxCost" : 6.0
      },
      {
        "minReward" : 3.0,
        "maxReward" : 6.0,
        "minCost" : 5.0,
        "maxCost" : 9.0
      },
      {
        "minReward" : 1.0,
        "maxReward" : 4.0,
        "minCost" : 1.0,
        "maxCost" : 4.0
      }
    ]
  },
  "rounds" : 5
}