{
    "M": 3.0,
    "solver": {
        "type": "Gurobi",
        "threads": 1,
        "intFeasTol": 1e-5,
        "numericFocus": 0,
        "feasibilityTol": 1e-6
    },
    "payoffChanger": {
	"type": "prospectTheoryPayoff",
	"alpha": 0.88,
	"beta": 0.88,
	"omega": 2.25
    }
}
