{
    "M": 3.0,
    "solver": {
        "type": "Gurobi",
        "threads": 1,
        "intFeasTol": 1e-5,
        "numericFocus": 0,
        "feasibilityTol": 1e-6
    },
    "timeLimitSeconds": 3600,
    "payoffChanger": {
	"type": "neutralPayoffChanger"
    }
}
