{
    "restrictionGenerator": {
        "type": "MILP",
        "informationSetChooser": {
            "type": "AI"
        }
    },
    "solver": {
        "type": "Gurobi",
        "threads": 1,
        "intFeasTol": 1e-5,
        "numericFocus": 0,
        "feasibilityTol": 1e-6
    }
}