{
  "infeasiblePenalty": -0.1,
  "mcts": {
    "simulations": 20,
    "selection": {
      "type": "uct",
      "c": 1.4
    },
    "statCalc": {
      "type": "mean"
    }
  },
  "mixedMethod": {
    "adjuster": {
      "type": "globalDamping"
    },
    "expander": {
      "probabilityBoost": 0.2,
      "initialExpander": {
        "evaluationFunction": "positiveAttacker",
        "type": "mcts",
        "mctsParams": {
          "simulations": 500,
          "selection": {
            "c": 1.4,
            "type": "uct"
          },
          "statCalc": {
            "type": "mean"
          }
        }
      },
      "negativeExpander": {
        "type": "mcts",
        "mctsParams": {
          "simulations": 500,
          "selection": {
            "c": 1.4,
            "type": "uct"
          },
          "statCalc": {
            "type": "mean"
          }
        },
        "evaluationFunction": "negativeAttacker"
      },
      "subtreeExpandedMultiplier": 0.4,
      "type": "random",
      "positiveExpander": {
        "evaluationFunction": "positiveDefender",
        "mctsParams": {
          "selection": {
            "c": 1.4,
            "type": "uct"
          },
          "simulations": 500,
          "statCalc": {
            "type": "mean"
          }
        },
        "type": "mcts"
      },
      "expandWorsePayoff": true
    },
    "refinementIterations": 10000,
    "feasibilityIterations": 5000,
    "poorImprovementEps": 1e-06,
    "poorImprovementIterationsStop": 5000,
    "subtreeChooser": {
      "type": "value",
      "probabilityBoost": 0.6
    },
    "improveDecision": {
      "type": "always"
    },
    "attackerOracle": {
      "type": "exactResponse",
      "historySkipConfig": {
        "startUsingAfter": -1,
        "useInterval": -1
      }
    },
    "pruneDecision": {
      "type": "noPrune"
    },
    "boundedRationalityStrategy": {
      "payoffChanger": {
        "type": "neutralPayoffChanger"
      },
      "probabilitiesChanger": {
        "type": "neutralProbabilityChanger"
      }
    }
  },
  "infeasiblePropagation": "noPropagation",
  "descendSample": false,
  "linearizedGame": "dfs"
}
