{
  "mixedMethod": {
    "poorImprovementEps": 1e-05,
    "improveDecision": {
      "type": "always"
    },
    "refinementIterations": 5000,
    "adjuster": {
      "type": "momentum"
    },
    "subtreeChooser": {
      "probabilityBoost": 1,
      "type": "value"
    },
    "expander": {
      "type": "mcts",
      "expansionProbability": 0.1,
      "mctsParams": {
        "selection": {
          "c": 1.4,
          "type": "uct"
        },
        "simulations": 300,
        "statCalc": {
          "type": "max"
        }
      },
      "expandWorsePayoff": false
    },
    "poorImprovementIterationsStop": 500,
    "feasibilityIterations": 10000,
    "attackerOracle": {
      "type": "exactResponse",
      "historySkipConfig": {
        "startUsingAfter": -1,
        "useInterval": -1
      }
    },
    "pruneDecision": {
      "type": "noPrune"
    },
    "boundedRationalityStrategy": {
      "payoffChanger": {
        "type": "neutralPayoffChanger"
      },
      "probabilitiesChanger": {
        "type": "neutralProbabilityChanger"
      }
    }
  },
  "infeasiblePenalty": -0.1,
  "infeasiblePropagation": "recalcPropagation",
  "mcts": {
    "selection": {
      "c": 1.4,
      "type": "uct"
    },
    "simulations": 30,
    "statCalc": {
      "type": "max"
    }
  },
  "descendSample": true,
  "linearizedGame": "dfs"
}
