{
  "mixedMethod": {
    "poorImprovementEps": 1e-05,
    "improveDecision": {
      "type": "always"
    },
    "refinementIterations": 5000,
    "adjuster": {
      "type": "momentum"
    },
    "subtreeChooser": {
      "probabilityBoost": 1,
      "type": "value"
    },
    "expander": {
      "positiveExpander": {
        "mctsParams": {
          "selection": {
            "c": 1.4,
            "type": "uct"
          },
          "simulations": 300,
          "statCalc": {
            "type": "mean"
          }
        },
        "evaluationFunction": "positiveDefender",
        "type": "mcts"
      },
      "initialExpander": {
        "mctsParams": {
          "selection": {
            "c": 1.4,
            "type": "uct"
          },
          "simulations": 300,
          "statCalc": {
            "type": "mean"
          }
        },
        "evaluationFunction": "negativeAttacker",
        "type": "mcts"
      },
      "negativeExpander": {
        "mctsParams": {
          "selection": {
            "c": 1.4,
            "type": "uct"
          },
          "simulations": 300,
          "statCalc": {
            "type": "mean"
          }
        },
        "evaluationFunction": "negativeAttacker",
        "type": "mcts"
      },
      "probabilityBoost": 0.3,
      "subtreeExpandedMultiplier": 0.4,
      "type": "random",
      "expandWorsePayoff": true
    },
    "poorImprovementIterationsStop": 500,
    "feasibilityIterations": 10000,
    "attackerOracle": {
      "type": "exactResponse",
      "historySkipConfig": {
        "startUsingAfter": 10,
        "useInterval": 30
      }
    },
    "pruneDecision": {
      "type": "noPrune"
    },
    "boundedRationalityStrategy": {
      "payoffChanger": {
        "type": "neutralPayoffChanger"
      },
      "probabilitiesChanger": {
        "type": "neutralProbabilityChanger"
      }
    }
  },
  "infeasiblePenalty": -0.1,
  "infeasiblePropagation": "recalcPropagation",
  "mcts": {
    "selection": {
      "c": 1.4,
      "type": "uct"
    },
    "simulations": 30,
    "statCalc": {
      "type": "max"
    }
  },
  "descendSample": true,
  "linearizedGame": "dfs"
}
