{
  "nestedMcsConfig": {
    "depth": 3,
    "samples": 1
  },
  "infeasiblePenalty": -0.1,
  "mixedConfig": {
    "poorImprovementEps": 1e-06,
    "improveDecision": {
      "type": "always"
    },
    "refinementIterations": 5000,
    "adjuster": {
      "type": "momentum"
    },
    "subtreeChooser": {
      "probabilityBoost": 0.6,
      "type": "value"
    },
    "expander": {
      "positiveExpander": {
        "mctsParams": {
          "selection": {
            "c": 1.4,
            "type": "uct"
          },
          "simulations": 300,
          "statCalc": {
            "type": "mean"
          }
        },
        "evaluationFunction": "positiveDefender",
        "type": "mcts"
      },
      "initialExpander": {
        "mctsParams": {
          "selection": {
            "c": 1.4,
            "type": "uct"
          },
          "simulations": 300,
          "statCalc": {
            "type": "mean"
          }
        },
        "evaluationFunction": "positiveDefender",
        "type": "mcts"
      },
      "negativeExpander": {
        "mctsParams": {
          "selection": {
            "c": 1.4,
            "type": "uct"
          },
          "simulations": 300,
          "statCalc": {
            "type": "mean"
          }
        },
        "evaluationFunction": "negativeAttacker",
        "type": "mcts"
      },
      "probabilityBoost": 0.7,
      "subtreeExpandedMultiplier": 0.8,
      "type": "random",
      "expandWorsePayoff": true
    },
    "poorImprovementIterationsStop": 1000,
    "feasibilityIterations": 5000,
    "attackerOracle": {
      "type": "exactResponse",
      "historySkipConfig": {
        "startUsingAfter": -1,
        "useInterval": -1
      }
    },
    "pruneDecision": {
      "type": "noPrune"
    },
    "boundedRationalityStrategy": {
      "payoffChanger": {
        "type": "neutralPayoffChanger"
      },
      "probabilitiesChanger": {
        "type": "neutralProbabilityChanger"
      }
    }
  },
  "linearizedGame": "dfs"
}
