{
    "bestSearchHistoryLength": 5,
    "updateIterations": 5000,
    "oneAttackerEvaluations": 4000,
    "oneAttackerRoots": 1,
    "dampingCoefficient": 1,
    "otherAttackerMovesProbability": 0,
    "treeTransferType": "BEST_PART", 
    "attackerHistoryLength": 1,
    "attackerHistoryDamping": 1,
    "bestPortion": 0.5,
    "joinMethod": "MEDIAN_JOIN",
    "treeFilterType": "ALL_TREES",
    "nodeProbabilityFunction": "VISITS_COUNT"
}
