{
    "bestSearchHistoryLength": 10,
    "updateIterations": 50000,
    "oneAttackerEvaluations": 3000,
    "oneAttackerRoots": 1,
    "dampingCoefficient": 1,
    "otherAttackerMovesProbability": 0,
    "treeTransferType": "BEST_PART", 
    "attackerHistoryLength": 1,
    "attackerHistoryDamping": 1,
    "bestPortion": 0.5,
    "joinMethod": "MEAN_JOIN",
    "treeFilterType": "BEST_TREES",
    "bestTreesPortion": 0.005,
    "nodeProbabilityFunction": "LINEAR_QUALITY"
}
