{
    "bestSearchHistoryLength": 10,
    "updateIterations": 20000,
    "oneAttackerEvaluations": 4000,
    "oneAttackerRoots": 1,
    "dampingCoefficient": 1,
    "otherAttackerMovesProbability": 0,
    "treeTransferType": "BEST_PART", 
    "attackerHistoryLength": 1,
    "attackerHistoryDamping": 1,
    "bestPortion": 0.5,
    "joinMethod": "VISIT_WEIGHTED_JOIN",
    "treeFilterType": "BEST_TREES",
    "bestTreesPortion": 0.05,
    "nodeProbabilityFunction": "VISITS_COUNT"
}
