{
    "uctDepth": 20,
    "epochLength": 6000,
    "gameLength": 20,
    "explorationCoefficient": 25,
    "updaterLoss": 1.0,
    "updaterEps": 1e-3,
    "updaterLimit": 20,
    "uctRoots": 20    
}
