{
    "bestSearchHistoryLength": 20,
    "updateIterations": 3200,
    "oneAttackerEvaluations": 5000,
    "oneAttackerRoots": 1,
    "dampingCoefficient": 1,
    "otherAttackerMovesProbability": 0,
    "treeTransferType": "BEST_PART", 
    "attackerHistoryLength": 1,
    "attackerHistoryDamping": 1,
    "bestPortion": 0.5,
    "joinMethod": "VISIT_WEIGHTED_JOIN",
    "treeFilterType": "ALL_TREES",
    "nodeProbabilityFunction": "VISITS_COUNT",
        "strategyFilterType": "BEST_GAP",
    "bestGap": 0.05    

}
