{
    "bestSearchHistoryLength": 20,
    "updateIterations": 1600,
    "oneAttackerEvaluations": 50000,
    "oneAttackerRoots": 1,
    "dampingCoefficient": 1,
    "otherAttackerMovesProbability": 0,
    "treeTransferType": "BEST_MOVE", 
    "attackerHistoryLength": 1,
    "attackerHistoryDamping": 1 
}
