{
    "bestSearchHistoryLength": 5,
    "updateIterations": 400,
    "oneAttackerEvaluations": 50000,
    "oneAttackerRoots": 1,
    "dampingCoefficient": 1,
    "otherAttackerMovesProbability": 0,
    "treeTransferType": "BEST_PART", 
    "attackerHistoryLength": 1,
    "attackerHistoryDamping": 1,
    "bestPortion": 0.5,
    "joinMethod": "PURE_COUNT_JOIN",
    "treeFilterType": "ALL_TREES",
    "nodeProbabilityFunction": "LINEAR_QUALITY"    
}
