{
    "bestSearchHistoryLength": 20,
    "updateIterations": 45000,
    "oneAttackerEvaluations": 500,
    "oneAttackerRoots": 1,
    "dampingCoefficient": 1,
    "otherAttackerMovesProbability": 0,
    "treeTransferType": "FULL_TREE", 
    "attackerHistoryLength": 1,
    "attackerHistoryDamping": 1,
    "nodeProbabilityFunction": "VISITS_COUNT",
    "strategyFilterType": "BEST_GAP",
    "bestGap": 0.05,
    "startingAttackerType": "UNIFORM_DEFENDER_OPPONENT",
    "defenderStrategyChooser": "BEST_STRATEGY_EVER",
    "noImprovementIterations": 10000
}
