{
    "bestSearchHistoryLength": 20,
    "updateIterations": 3200,
    "oneAttackerEvaluations": 50000,
    "oneAttackerRoots": 1,
    "dampingCoefficient": 1,
    "otherAttackerMovesProbability": 0,
    "treeTransferType": "FULL_TREE", 
    "attackerHistoryLength": 1,
    "attackerHistoryDamping": 1,
    "nodeProbabilityFunction": "VISITS_COUNT"
}
