{
    "bestSearchHistoryLength": 5,
    "updateIterations": 40,
    "oneAttackerEvaluations": 500000,
    "oneAttackerRoots": 1,
    "dampingCoefficient": 1,
    "otherAttackerMovesProbability": 0,
    "treeTransferType": "BEST_MOVE", 
    "attackerHistoryLength": 1,
    "attackerHistoryDamping": 1 
}
