{
    "bestSearchHistoryLength": 5,
    "updateIterations": 40,
    "oneAttackerEvaluations": 500000,
    "oneAttackerRoots": 1,
    "dampingCoefficient": 1,
    "otherAttackerMovesProbability": 0,
    "treeTransferType": "FULL_TREE", 
    "attackerHistoryLength": 1,
    "attackerHistoryDamping": 1,
    "nodeProbabilityFunction": "VISITS_COUNT",
    "strategyFilterType": "BEST_GAP",
    "bestGap": 0.05    
}
