{
    "bestSearchHistoryLength": 20,
    "updateIterations": 10000,
    "oneAttackerEvaluations": 1000,
    "oneAttackerRoots": 1,
    "dampingCoefficient": 1,
    "otherAttackerMovesProbability": 0,
    "treeTransferType": "FULL_TREE", 
    "attackerHistoryLength": 1,
    "attackerHistoryDamping": 1,
    "nodeProbabilityFunction": "VISITS_COUNT",
    "strategyFilterType": "BEST_GAP",
    "bestGap": 0.2    
}
